    String sql = "SELECT  Product.Description, Orders.Quantity, Orders.UnitPrice, " + 
        " (Orders.UnitPrice * Orders.Quantity) AS \"Total Cost\" " + 
        " FROM Customer INNER JOIN " +
        " Orders ON Customer.custid = Orders.custid INNER JOIN " +
        " Product ON Orders.productid = Product.productid ";

    if("".equals(req.getParameter("id")))
    {
        sql += " WHERE forename = '" + req.getParameter("forename") + "'";
        sql += " AND surname = '" + req.getParameter("surname") + "'";
    }
    else
    {
        sql += " WHERE Customer.custid = " + req.getParameter("id");
    }    
